(0.050000000000004638;0.00049524320658336297) (0.099999999999993927;0.00033812623791811713) (0.15000000000000924;5.3718869549386247e-05) 
(0.20000000000005924;-0.00028720754024704994) (0.25000000000010925;-0.00066023305960347058) (0.30000000000015925;-0.0010539855654461837) 
(0.35000000000020925;-0.0014622363653409483) (0.40000000000025926;-0.0018812011091701899) (0.45000000000030926;-0.0023084075233026882) 
(0.50000000000035927;-0.0027421512210729121) (0.55000000000013172;-0.0031812073225128295) (0.59999999999990417;-0.0036246659060055093) 
(0.64999999999967661;-0.0040718324996855768) (0.69999999999944906;-0.0045221650107946558) (0.74999999999922151;-0.004975232168510894) 
(0.79999999999899396;-0.0054306852339391955) (0.84999999999876641;-0.0058882381982334388) (0.89999999999853886;-0.0063476535849653504) 
(0.94999999999831131;-0.0068087320549651562) (0.99999999999808376;-0.0072713046534449181) (1.0499999999984113;-0.007735226932294911) 
(1.0999999999987389;-0.0082003744283206427) (1.1499999999990664;-0.008666639138551922) (1.199999999999394;-0.0091339267398986672) 
(1.2499999999997216;-0.0096021543721432744) (1.3000000000000491;-0.010071248852618946) (1.3500000000003767;-0.010541145225476596) 
(1.4000000000007042;-0.011011785573004404) (1.4500000000010318;-0.011483118034171525) (1.5000000000013594;-0.011955095988502846) 
(1.5500000000016869;-0.012427677372949071) (1.6000000000020145;-0.012900824106564261) (1.650000000002342;-0.013374501603197806) 
(1.7000000000026696;-0.013848678356520904) (1.7500000000029972;-0.014323325584874565) (1.8000000000033247;-0.014798416925879751) 
(1.8500000000036523;-0.015273928172670018) (1.9000000000039798;-0.015749837045119442) (1.9500000000043074;-0.016226122990638619) 
(2.000000000004635;-0.016702767010067811) (2.0500000000049625;-0.017179751504965476) (2.1000000000052901;-0.017657060143213062) 
(2.1500000000056176;-0.018134677740362266) (2.2000000000059452;-0.018612590154560748) (2.2500000000062728;-0.019090784193235746) 
(2.3000000000066003;-0.01956924752998827) (2.3500000000069279;-0.020047968630387901) (2.4000000000072554;-0.020526936685548527) 
(2.450000000007583;-0.021006141552523901) (2.5000000000079106;-0.021485573700701751) (2.5500000000082381;-0.021965224163485654) 
(2.6000000000085657;-0.022445084494650117) (2.6500000000088932;-0.022925146728837862) (2.7000000000092208;-0.023405403345735352) 
(2.7500000000095484;-0.023885847237524342) (2.8000000000098759;-0.024366471679254615) (2.8500000000102035;-0.024847270301830818) 
(2.900000000010531;-0.025328237067339759) (2.9500000000108586;-0.025809366246479774) (3.0000000000111862;-0.02629065239788083) 
(3.0500000000115137;-0.026772090349128523) (3.1000000000118413;-0.027253675179325129) (3.1500000000121688;-0.027735402203043019) 
(3.2000000000124964;-0.028217266955536193) (3.250000000012824;-0.028699265179096059) (3.3000000000131515;-0.029181392810444729) 
(3.3500000000134791;-0.02966364596907442) (3.4000000000138066;-0.030146020946447017) (3.4500000000141342;-0.03062851419598098) 
(3.5000000000144618;-0.03111112232375577) (3.5500000000147893;-0.031593842079873764) (3.6000000000151169;-0.032076670350425239) 
(3.6500000000154444;-0.032559604150006055) (3.700000000015772;-0.03304264061474059) (3.7500000000160996;-0.033525776995776774) 
(3.8000000000164271;-0.03400901065320526) (3.8500000000167547;-0.03449233905037865) (3.9000000000170822;-0.034975759748594841) 
(3.9500000000174098;-0.035459270402118666) (4.0000000000177369;-0.035942868753515461) (4.050000000015844;-0.036426552629275577) 
(4.1000000000139512;-0.036910319935702665) (4.1500000000120583;-0.037394168655054329) (4.2000000000101654;-0.037878096841912831) 
(4.2500000000082725;-0.038362102619767989) (4.3000000000063796;-0.038846184177801703) (4.3500000000044867;-0.039330339767856451) 
(4.4000000000025938;-0.039814567701577458) (4.450000000000701;-0.040298866347715866) (4.4999999999988081;-0.04078323412958177) 
(4.5499999999969152;-0.041267669522637884) (4.5999999999950223;-0.041752171052224597) (4.6499999999931294;-0.042236737291408415) 
(4.6999999999912365;-0.042721366858942962) (4.7499999999893436;-0.043206058417340189) (4.7999999999874507;-0.043690810671041573) 
(4.8499999999855579;-0.044175622364682358) (4.899999999983665;-0.04466049228144707) (4.9499999999817721;-0.045145419241506654) 
(4.9999999999798792;-0.045630402100534727) (5.0499999999779863;-0.04611543974829703) (5.0999999999760934;-0.046600531107310578) 
(5.1499999999742005;-0.047085675131568118) (5.1999999999723077;-0.047570870805323621) (5.2499999999704148;-0.048056117141936798) 
(5.2999999999685219;-0.048541413182771109) (5.349999999966629;-0.049026757996143928) (5.3999999999647361;-0.049512150676325646) 
(5.4499999999628432;-0.049997590342584101) (5.4999999999609503;-0.050483076138273929) (5.5499999999590575;-0.050968607229965407) 
(5.5999999999571646;-0.051454182806613367) (5.6499999999552717;-0.051939802078762837) (5.6999999999533788;-0.052425464277789158) 
(5.7499999999514859;-0.052911168655171703) (5.799999999949593;-0.053396914481798965) (5.8499999999477001;-0.053882701047303257) 
(5.8999999999458073;-0.054368527659422669) (5.9499999999439144;-0.054854393643392972) (5.9999999999420215;-0.055340298341360838) 
(6.0499999999401286;-0.055826241111824791) (6.0999999999382357;-0.0563122213290966) (6.1499999999363428;-0.056798238382787004) 
(6.1999999999344499;-0.057284291677309675) (6.2499999999325571;-0.057770380631408137) (6.2999999999306642;-0.058256504677697184) 
(6.3499999999287713;-0.0587426632622279) (6.3999999999268784;-0.059228855844064052) (6.4499999999249855;-0.059715081894879722) 
(6.4999999999230926;-0.060201340898569614) (6.5499999999211997;-0.060687632350874071) (6.5999999999193069;-0.061173955759021112) 
(6.649999999917414;-0.061660310641378752) (6.6999999999155211;-0.062146696527122521) (6.7499999999136282;-0.062633112955914019) 
(6.7999999999117353;-0.063119559477592208) (6.8499999999098424;-0.063606035651874782) (6.8999999999079495;-0.064092541048072452) 
(6.9499999999060567;-0.064579075244811518) (6.9999999999041638;-0.065065637829766695) (7.0499999999022709;-0.065552228399405152) 
(7.099999999900378;-0.066038846558737929) (7.1499999998984851;-0.06652549192107908) (7.1999999998965922;-0.067012164107815034) 
(7.2499999998946993;-0.067498862748184577) (7.2999999998928065;-0.067985587479057988) (7.3499999998909136;-0.06847233794473305) 
(7.3999999998890207;-0.068959113796731961) (7.4499999998871278;-0.069445914693607363) (7.4999999998852349;-0.069932740300754886) 
(7.549999999883342;-0.070419590290231981) (7.5999999998814491;-0.070906464340579956) (7.6499999998795563;-0.071393362136656799) 
(7.6999999998776634;-0.07188028336947172) (7.7499999998757705;-0.072367227736024983) (7.7999999998738776;-0.072854194939156389) 
(7.8499999998719847;-0.073341184687395006) (7.8999999998700918;-0.073828196694813247) (7.9499999998681989;-0.074315230680890548) 
(7.9999999998663061;-0.074802286370373464) (8.0499999998644132;-0.075289363493150546) (8.0999999998625203;-0.075776461784118551) 
(8.1499999998606274;-0.076263580983065293) (8.1999999998587345;-0.076750720834544747) (8.2499999998568416;-0.077237881087765622) 
(8.2999999998549487;-0.077725061496476441) (8.3499999998530559;-0.078212261818857598) (8.399999999851163;-0.078699481817415665) 
(8.4499999998492701;-0.079186721258880877) (8.4999999998473772;-0.079673979914105797) (8.5499999998454843;-0.080161257557972196) 
(8.5999999998435914;-0.080648553969294226) (8.6499999998416985;-0.081135868930729466) (8.6999999998398057;-0.081623202228687089) 
(8.7499999998379128;-0.082110553653246265) (8.7999999998360199;-0.082597922998068937) (8.849999999834127;-0.083085310060321188) 
(8.8999999998322341;-0.083572714640592294) (8.9499999998303412;-0.084060136542822114) (8.9999999998284483;-0.084547575574220116) 
(9.0499999998265555;-0.085035031545199494) (9.0999999998246626;-0.085522504269302066) (9.1499999998227697;-0.086009993563131146) 
(9.1999999998208768;-0.086497499246285414) (9.2499999998189839;-0.086985021141294472) (9.299999999817091;-0.087472559073553793) 
(9.3499999998151981;-0.087960112871266899) (9.3999999998133053;-0.088447682365380823) (9.4499999998114124;-0.088935267389530503) 
(9.4999999998095195;-0.089422867779982276) (9.5499999998076266;-0.089910483375578235) (9.5999999998057337;-0.090398114017682538) 
(9.6499999998038408;-0.090885759550129869) (9.6999999998019479;-0.091373419819172255) (9.7499999998000551;-0.091861094673432231) 
(9.7999999997981622;-0.092348783963851155) (9.8499999997962693;-0.092836487543644167) (9.8999999997943764;-0.093324205268255314) 
(9.9499999997924835;-0.093811936995309153) (9.9999999997905906;-0.094299682584571207) (10.049999999788698;-0.094787441897901586) 
(10.099999999786805;-0.095275214799216038) (10.149999999784912;-0.095763001154443042) (10.199999999783019;-0.096250800831487043) 
(10.249999999781126;-0.096738613700187603) (10.299999999779233;-0.097226439632283376) (10.34999999977734;-0.097714278501373708) 
(10.399999999775448;-0.098202130182884151) (10.449999999773555;-0.09868999455403113) (10.499999999771662;-0.099177871493787706) 
(10.549999999769769;-0.099665760882849369) (10.599999999767876;-0.10015366260360288) (10.649999999765983;-0.10064157654009441) 
(10.69999999976409;-0.10112950257799636) (10.749999999762197;-0.10161744060458038) (10.799999999760304;-0.1021053905086839) 
(10.849999999758412;-0.10259335218068644) (10.899999999756519;-0.10308132551247556) (10.949999999754626;-0.10356931039742265) 
(10.999999999752733;-0.10405730673035522) (11.04999999975084;-0.10454531440753045) (11.099999999748947;-0.10503333332660855) 
(11.149999999747054;-0.10552136338662996) (11.199999999745161;-0.10600940448798719) (11.249999999743268;-0.10649745653240385) 
(11.299999999741376;-0.10698551942290913) (11.349999999739483;-0.10747359306381651) (11.39999999973759;-0.1079616773606997) 
(11.449999999735697;-0.10844977222037058) (11.499999999733804;-0.10893787755085772) (11.549999999731911;-0.1094259932613879) 
(11.599999999730018;-0.10991411926236108) (11.649999999728125;-0.11040225546533326) (11.699999999726233;-0.11089040178299482) 
(11.74999999972434;-0.11137855812915423) (11.799999999722447;-0.11186672441871455) (11.849999999720554;-0.1123549005676594) 
(11.899999999718661;-0.11284308649303063) (11.949999999716768;-0.11333128211291568) (11.999999999714875;-0.11381948734642464) 
(12.049999999712982;-0.1143077021136768) (12.099999999711089;-0.11479592633578241) (12.149999999709197;-0.11528415993482817) 
(12.199999999707304;-0.11577240283385798) (12.249999999705411;-0.11626065495686097) (12.299999999703518;-0.11674891622875298) 
(12.349999999701625;-0.11723718657536432) (12.399999999699732;-0.11772546592342195) (12.449999999697839;-0.11821375420053815) 
(12.499999999695946;-0.11870205133519436) (12.549999999694053;-0.11919035725672807) (12.599999999692161;-0.11967867189531882) 
(12.649999999690268;-0.12016699518197448) (12.699999999688375;-0.12065532704851969) (12.749999999686482;-0.12114366742758188) 
(12.799999999684589;-0.12163201625257827) (12.849999999682696;-0.12212037345770388) (12.899999999680803;-0.12260873897792271) 
(12.94999999967891;-0.12309711274895006) (12.999999999677017;-0.12358549470724406) 