(0.050000000000004638;0) (0.099999999999993927;0) (0.15000000000000924;0) 
(0.20000000000005924;0) (0.25000000000010925;0) (0.30000000000015925;0) 
(0.35000000000020925;0) (0.40000000000025926;0) (0.45000000000030926;0) 
(0.50000000000035927;0) (0.55000000000013172;0) (0.59999999999990417;0) 
(0.64999999999967661;0) (0.69999999999944906;0) (0.74999999999922151;0) 
(0.79999999999899396;0) (0.84999999999876641;0) (0.89999999999853886;0) 
(0.94999999999831131;0) (0.99999999999808376;0) (1.0499999999984113;0) 
(1.0999999999987389;0) (1.1499999999990664;0) (1.199999999999394;0) 
(1.2499999999997216;0) (1.3000000000000491;0) (1.3500000000003767;0) 
(1.4000000000007042;0) (1.4500000000010318;0) (1.5000000000013594;0) 
(1.5500000000016869;0) (1.6000000000020145;0) (1.650000000002342;0) 
(1.7000000000026696;0) (1.7500000000029972;0) (1.8000000000033247;0) 
(1.8500000000036523;0) (1.9000000000039798;0) (1.9500000000043074;0) 
(2.000000000004635;0) (2.0500000000049625;0) (2.1000000000052901;0) 
(2.1500000000056176;0) (2.2000000000059452;0) (2.2500000000062728;0) 
(2.3000000000066003;0) (2.3500000000069279;0) (2.4000000000072554;0) 
(2.450000000007583;0) (2.5000000000079106;0) (2.5500000000082381;0) 
(2.6000000000085657;0) (2.6500000000088932;0) (2.7000000000092208;0) 
(2.7500000000095484;0) (2.8000000000098759;0) (2.8500000000102035;0) 
(2.900000000010531;0) (2.9500000000108586;0) (3.0000000000111862;0) 
(3.0500000000115137;0) (3.1000000000118413;0) (3.1500000000121688;0) 
(3.2000000000124964;0) (3.250000000012824;0) (3.3000000000131515;0) 
(3.3500000000134791;0) (3.4000000000138066;0) (3.4500000000141342;0) 
(3.5000000000144618;0) (3.5500000000147893;0) (3.6000000000151169;0) 
(3.6500000000154444;0) (3.700000000015772;0) (3.7500000000160996;0) 
(3.8000000000164271;0) (3.8500000000167547;0) (3.9000000000170822;0) 
(3.9500000000174098;0) (4.0000000000177369;0) (4.050000000015844;0) 
(4.1000000000139512;0) (4.1500000000120583;0) (4.2000000000101654;0) 
(4.2500000000082725;0) (4.3000000000063796;0) (4.3500000000044867;0) 
(4.4000000000025938;0) (4.450000000000701;0) (4.4999999999988081;0) 
(4.5499999999969152;0) (4.5999999999950223;0) (4.6499999999931294;0) 
(4.6999999999912365;0) (4.7499999999893436;0) (4.7999999999874507;0) 
(4.8499999999855579;0) (4.899999999983665;0) (4.9499999999817721;0) 
(4.9999999999798792;0) (5.0499999999779863;0) (5.0999999999760934;0) 
(5.1499999999742005;0) (5.1999999999723077;0) (5.2499999999704148;0) 
(5.2999999999685219;0) (5.349999999966629;0) (5.3999999999647361;0) 
(5.4499999999628432;0) (5.4999999999609503;0) (5.5499999999590575;0) 
(5.5999999999571646;0) (5.6499999999552717;0) (5.6999999999533788;0) 
(5.7499999999514859;0) (5.799999999949593;0) (5.8499999999477001;0) 
(5.8999999999458073;0) (5.9499999999439144;0) (5.9999999999420215;0) 
(6.0499999999401286;0) (6.0999999999382357;0) (6.1499999999363428;0) 
(6.1999999999344499;0) (6.2499999999325571;0) (6.2999999999306642;0) 
(6.3499999999287713;0) (6.3999999999268784;0) (6.4499999999249855;0) 
(6.4999999999230926;0) (6.5499999999211997;0) (6.5999999999193069;0) 
(6.649999999917414;0) (6.6999999999155211;0) (6.7499999999136282;0) 
(6.7999999999117353;0) (6.8499999999098424;0) (6.8999999999079495;0) 
(6.9499999999060567;0) (6.9999999999041638;0) (7.0499999999022709;0) 
(7.099999999900378;0) (7.1499999998984851;0) (7.1999999998965922;0) 
(7.2499999998946993;0) (7.2999999998928065;0) (7.3499999998909136;0) 
(7.3999999998890207;0) (7.4499999998871278;0) (7.4999999998852349;0) 
(7.549999999883342;0) (7.5999999998814491;0) (7.6499999998795563;0) 
(7.6999999998776634;0) (7.7499999998757705;0) (7.7999999998738776;0) 
(7.8499999998719847;0) (7.8999999998700918;0) (7.9499999998681989;0) 
(7.9999999998663061;0) (8.0499999998644132;0) (8.0999999998625203;0) 
(8.1499999998606274;0) (8.1999999998587345;0) (8.2499999998568416;0) 
(8.2999999998549487;0) (8.3499999998530559;0) (8.399999999851163;0) 
(8.4499999998492701;0) (8.4999999998473772;0) (8.5499999998454843;0) 
(8.5999999998435914;0) (8.6499999998416985;0) (8.6999999998398057;0) 
(8.7499999998379128;0) (8.7999999998360199;0) (8.849999999834127;0) 
(8.8999999998322341;0) (8.9499999998303412;0) (8.9999999998284483;0) 
(9.0499999998265555;0) (9.0999999998246626;0) (9.1499999998227697;0) 
(9.1999999998208768;0) (9.2499999998189839;0) (9.299999999817091;0) 
(9.3499999998151981;0) (9.3999999998133053;0) (9.4499999998114124;0) 
(9.4999999998095195;0) (9.5499999998076266;0) (9.5999999998057337;0) 
(9.6499999998038408;0) (9.6999999998019479;0) (9.7499999998000551;0) 
(9.7999999997981622;0) (9.8499999997962693;0) (9.8999999997943764;0) 
(9.9499999997924835;0) (9.9999999997905906;0) (10.049999999788698;0) 
(10.099999999786805;0) (10.149999999784912;0) (10.199999999783019;0) 
(10.249999999781126;0) (10.299999999779233;0) (10.34999999977734;0) 
(10.399999999775448;0) (10.449999999773555;0) (10.499999999771662;0) 
(10.549999999769769;0) (10.599999999767876;0) (10.649999999765983;0) 
(10.69999999976409;0) (10.749999999762197;0) (10.799999999760304;0) 
(10.849999999758412;0) (10.899999999756519;0) (10.949999999754626;0) 
(10.999999999752733;0) (11.04999999975084;0) (11.099999999748947;0) 
(11.149999999747054;0) (11.199999999745161;0) (11.249999999743268;0) 
(11.299999999741376;0) (11.349999999739483;0) (11.39999999973759;0) 
(11.449999999735697;0) (11.499999999733804;0) (11.549999999731911;0) 
(11.599999999730018;0) (11.649999999728125;0) (11.699999999726233;0) 
(11.74999999972434;0) (11.799999999722447;0) (11.849999999720554;0) 
(11.899999999718661;0) (11.949999999716768;0) (11.999999999714875;0) 
(12.049999999712982;0) (12.099999999711089;0) (12.149999999709197;0) 
(12.199999999707304;0) (12.249999999705411;0) (12.299999999703518;0) 
(12.349999999701625;0) (12.399999999699732;0) (12.449999999697839;0) 
(12.499999999695946;0) (12.549999999694053;0) (12.599999999692161;0) 
(12.649999999690268;0) (12.699999999688375;0) (12.749999999686482;0) 
(12.799999999684589;0) (12.849999999682696;0) (12.899999999680803;0) 
(12.94999999967891;0) (12.999999999677017;0) 